…
We can see by team the most goals that they have
allowed.

``` r
allGoalies <- getNHLData("franchise-goalie-records")
```

    ## No encoding supplied: defaulting to UTF-8.

``` r
allGoalies %>% group_by(franchiseName) %>% summarise("Most Goals Allowed in a Game" = max(mostGoalsAgainstOneGame))
```

    ## # A tibble: 38 x 2
    ##    franchiseName       `Most Goals Allowed in a Game`
    ##    <chr>                                        <int>
    ##  1 Anaheim Ducks                                    8
    ##  2 Arizona Coyotes                                 15
    ##  3 Boston Bruins                                   13
    ##  4 Brooklyn Americans                              10
    ##  5 Buffalo Sabres                                  11
    ##  6 Calgary Flames                                  11
    ##  7 Carolina Hurricanes                             11
    ##  8 Chicago Blackhawks                              12
    ##  9 Cleveland Barons                                11
    ## 10 Colorado Avalanche                              12
    ## # … with 28 more rows
…
